%YAML 1.1
%TAG !u! tag:unity3d.com,2011:
--- !u!221 &22100000
AnimatorOverrideController:
  m_ObjectHideFlags: 0
  m_CorrespondingSourceObject: {fileID: 0}
  m_PrefabInstance: {fileID: 0}
  m_PrefabAsset: {fileID: 0}
  m_Name: Slave_Rock1
  m_Controller: {fileID: 9100000, guid: 3786bc0bb0d4ce74081caf41666fcef6, type: 2}
  m_Clips:
  - m_OriginalClip: {fileID: 7400000, guid: 12e0565ff755c884e947ebdc371fd174, type: 2}
    m_OverrideClip: {fileID: 7400000, guid: 312001a395d2a894bba221873d962f57, type: 2}
