%YAML 1.1
%TAG !u! tag:unity3d.com,2011:
--- !u!221 &22100000
AnimatorOverrideController:
  m_ObjectHideFlags: 0
  m_CorrespondingSourceObject: {fileID: 0}
  m_PrefabInstance: {fileID: 0}
  m_PrefabAsset: {fileID: 0}
  m_Name: SoundButton
  m_Controller: {fileID: 9100000, guid: 303f2fee68f90dd4bb2fe0b072e7c226, type: 2}
  m_Clips:
  - m_OriginalClip: {fileID: 7400000, guid: bc6500e908ff30d44b7c9ff4952785e6, type: 2}
    m_OverrideClip: {fileID: 7400000, guid: bc6500e908ff30d44b7c9ff4952785e6, type: 2}
  - m_OriginalClip: {fileID: 7400000, guid: d81c6819ce8fc474292d255a0db892f7, type: 2}
    m_OverrideClip: {fileID: 7400000, guid: d81c6819ce8fc474292d255a0db892f7, type: 2}
